STA 9750 2024 Submission Material - Analysis of House and Presidential Election Data
…
# Display states with most gained and lost seats
cat("States with the Most Gains and Losses in Seats (1976-2022):\n")

States with the Most Gains and Losses in Seats (1976-2022):

print(house_seat_changes)

# A tibble: 51 × 2
   state        seats_gained_or_lost
   <chr>                       <int>
 1 TEXAS                          14
 2 FLORIDA                        13
 3 NEW YORK                       13
 4 CALIFORNIA                     10
 5 OHIO                            8
 6 PENNSYLVANIA                    8
 7 ILLINOIS                        7
 8 MICHIGAN                        6
 9 ARIZONA                         5
10 GEORGIA                         4
# ℹ 41 more rows
…
# Merge the summaries and calculate vote difference
vote_comparison <- pres_votes_summary %>%
  inner_join(house_votes_summary, by = c("year", "state", "party")) %>%
  mutate(vote_difference = pres_votes - house_votes)

# Display the summary
cat("Vote Comparison Between Presidential and House Candidates:\n")

Vote Comparison Between Presidential and House Candidates:

print(vote_comparison)

# A tibble: 1,493 × 6
    year state      party       pres_votes house_votes vote_difference
   <dbl> <chr>      <chr>            <dbl>       <dbl>           <dbl>
 1  1976 ALABAMA    DEMOCRAT        659170      667052           -7882
 2  1976 ALABAMA    REPUBLICAN      504070      314970          189100
 3  1976 ALASKA     DEMOCRAT         44058       34194            9864
 4  1976 ALASKA     REPUBLICAN       71555       83722          -12167
 5  1976 ARIZONA    DEMOCRAT        295602      355747          -60145
 6  1976 ARIZONA    LIBERTARIAN       7647       12588           -4941
 7  1976 ARIZONA    REPUBLICAN      418642      340478           78164
 8  1976 ARKANSAS   DEMOCRAT        498604      260998          237606
 9  1976 ARKANSAS   REPUBLICAN      267903       75385          192518
10  1976 CALIFORNIA DEMOCRAT       3742284     4144324         -402040
# ℹ 1,483 more rows
…
  cat("Presidents who performed significantly better or worse than their co-partisans in Congress:\n")
  print(notable_differences)
  
  # Analysis
  cat("\nAnalysis: The table lists cases where a president was significantly more or less popular than
  congressional candidates from the same party. Outliers indicate specific years or states where
  presidential candidates either greatly exceeded or fell short of their co-partisans. This could
  reflect unique candidate appeal, political circumstances, or party alignment issues within that election cycle.")
  
} else {
  cat("Error: `vote_difference` column not found or `vote_comparison` dataset is empty.")
}

Presidents who performed significantly better or worse than their co-partisans in Congress:
# A tibble: 75 × 6
    year state      party      pres_votes house_votes vote_difference
   <dbl> <chr>      <chr>           <dbl>       <dbl>           <dbl>
 1  1984 FLORIDA    REPUBLICAN    2730350     1190779         1539571
 2  1984 TEXAS      REPUBLICAN    3433428     1981823         1451605
 3  2004 FLORIDA    DEMOCRAT      3583544     2212326         1371218
 4  1988 TEXAS      REPUBLICAN    3036829     1834135         1202694
 5  1984 CALIFORNIA REPUBLICAN    5467009     4423734         1043275
 6  1984 LOUISIANA  REPUBLICAN    1037299           2         1037297
 7  1988 FLORIDA    REPUBLICAN    2618885     1615569         1003316
 8  2000 FLORIDA    DEMOCRAT      2912253     1976189          936064
 9  1980 TEXAS      REPUBLICAN    2510705     1608636          902069
10  2008 CALIFORNIA DEMOCRAT      8274473     7377725          896748
# ℹ 65 more rows
…
# Remove geometry temporarily and count districts by state
district_counts_by_state <- shapefile_data_2000 %>%
  st_set_geometry(NULL) %>%  # Remove geometry temporarily
  group_by(STATENAME) %>%
  summarize(num_districts = n_distinct(DISTRICT)) %>%
  arrange(desc(num_districts))

# Print the results
cat("Number of Districts by State:\n")

Number of Districts by State:

print(district_counts_by_state)

# A tibble: 50 × 2
   STATENAME     num_districts
   <chr>                 <int>
 1 California               43
 2 New York                 39
 3 Pennsylvania             25
 4 Illinois                 24
 5 Texas                    24
 6 Ohio                     23
 7 Michigan                 19
 8 Florida                  15
 9 New Jersey               15
10 Massachusetts            12
# ℹ 40 more rows
…
red_states <- state_winner %>%
  filter(winning_party == "Red") %>%
  pull(state)

# Print the results
cat("Winning Party by State for the Year 2000:\n")

Winning Party by State for the Year 2000:

print(state_winner)

# A tibble: 50 × 2
   state       winning_party
   <chr>       <chr>        
 1 ALABAMA     Red          
 2 ALASKA      Red          
 3 ARIZONA     Red          
 4 ARKANSAS    Blue         
 5 CALIFORNIA  Blue         
 6 COLORADO    Red          
 7 CONNECTICUT Blue         
 8 DELAWARE    Red          
 9 FLORIDA     Red          
10 GEORGIA     Red          
# ℹ 40 more rows
…
