Transit Data Analysis – STA 9750 2024 Submission Material
…
`summarise()` has grouped output by 'Agency'. You can override using the
`.groups` argument.

Show the code

# Display result
print(annual_usage_2022)

# A tibble: 1,138 × 4
   Agency                                Mode  Total_Trips Total_Miles
   <chr>                                 <chr>       <dbl>       <dbl>
 1 Academy Lines, Inc.                   CB         940697     2701376
 2 Access Services                       DR        3189810    59457346
 3 Ada County Highway District           VP         129453     1393703
 4 Adirondack Transit Lines, Inc.        CB         298376     1292283
 5 Alameda-Contra Costa Transit District CB         384442      442777
 6 Alameda-Contra Costa Transit District DR         370294     3774811
 7 Alameda-Contra Costa Transit District MB       27791478    32885088
 8 Alameda-Contra Costa Transit District RB        3756519      646683
 9 Alamo Area Council of Governments     DR         114591     1303153
10 Alamo Area Council of Governments     MB          10498       46991
# ℹ 1,128 more rows
…
