STA 9750 2024 Submission Material
…
format: html: theme: cosmo # Set the theme to “cosmo” or any other desired theme toc: true # Enable table of contents if needed toc-depth: 2 # Set depth for the table of contents css: styles.css # Optional: add custom CSS if you have a separate stylesheet

Step 1: Data Preparation Script

#Run this script in R to clean, transform, and save the data for the .qmd file to use.

This report explores trends in US House and Presidential elections, focusing on total votes by year and party, as well as unique insights from fusion voting and candidate performance.

Initial Exploration of Vote Count Data

Question 1: Which states have gained and lost the most seats in the US House of Representatives between 1976 and 2022?

States with the Most Gains and Losses in Seats (1976-2022):

# A tibble: 51 × 2
   state        seats_gained_or_lost
   <chr>                       <int>
 1 TEXAS                          14
 2 FLORIDA                        13
 3 NEW YORK                       13
 4 CALIFORNIA                     10
 5 OHIO                            8
 6 PENNSYLVANIA                    8
 7 ILLINOIS                        7
 8 MICHIGAN                        6
 9 ARIZONA                         5
10 GEORGIA                         4
# ℹ 41 more rows
…
Mid-Term Variability:

There are notable swings in the mid-term years, with Democrats experiencing spikes that briefly outpace Republicans. These shifts align with competitive election cycles in Florida, where both parties heavily invest in mobilizing voters. Recent Trends: In recent years, the trend has leveled, with Republicans maintaining a slight but consistent lead. This pattern suggests that while Florida remains a swing state, recent presidential elections have slightly favored Republicans in terms of vote difference.

In summary:

Florida’s trends reflect its status as a battleground state, with periodic swings between parties and a recent slight advantage for Republicans in presidential races compared to congressional contests.

Task 4: Popularity Trends Over Time and Notable Outliers

Question: Does this trend differ over time, across states, or across parties? Are any presidents particularly more or less popular than their co-partisans?

Presidents who performed significantly better or worse than their co-partisans in Congress:
# A tibble: 60 × 6
    year state      party      pres_votes house_votes vote_difference
   <dbl> <chr>      <chr>           <dbl>       <dbl>           <dbl>
 1  1984 FLORIDA    REPUBLICAN    2730350     1190779         1539571
 2  1984 TEXAS      REPUBLICAN    3433428     1981823         1451605
 3  2004 FLORIDA    DEMOCRAT      3583544     2212326         1371218
 4  1988 TEXAS      REPUBLICAN    3036829     1834135         1202694
 5  1984 CALIFORNIA REPUBLICAN    5467009     4423734         1043275
 6  1984 LOUISIANA  REPUBLICAN    1037299           2         1037297
 7  1988 FLORIDA    REPUBLICAN    2618885     1615569         1003316
 8  2000 FLORIDA    DEMOCRAT      2912253     1976189          936064
 9  1980 TEXAS      REPUBLICAN    2510705     1608636          902069
10  2008 CALIFORNIA DEMOCRAT      8274473     7377725          896748
# ℹ 50 more rows
…
These are the number of districts by state

Number of Districts by State:

# A tibble: 50 × 2
   STATENAME     num_districts
   <chr>                 <int>
 1 California               43
 2 New York                 39
 3 Pennsylvania             25
 4 Illinois                 24
 5 Texas                    24
 6 Ohio                     23
 7 Michigan                 19
 8 Florida                  15
 9 New Jersey               15
10 Massachusetts            12
# ℹ 40 more rows
…
here we list all the red (Republican) and blue (Democrat) states

Winning Party by State for the Year 2000:

# A tibble: 50 × 2
   state       winning_party
   <chr>       <chr>        
 1 ALABAMA     Red          
 2 ALASKA      Red          
 3 ARIZONA     Red          
 4 ARKANSAS    Blue         
 5 CALIFORNIA  Blue         
 6 COLORADO    Red          
 7 CONNECTICUT Blue         
 8 DELAWARE    Red          
 9 FLORIDA     Red          
10 GEORGIA     Red          
# ℹ 40 more rows
…
